17/12/2012 15:08:05 | NEW ITEMS: 67
17/12/2012 15:08:06 | TRANSACTIONID: 98 | HOTEL: Millenium & Copthorne Hotels @ CFC | ROOM : HALL | AMOUNT : 20
17/12/2012 15:08:07 | TRANSACTIONID: 98 | STATUS CHANGE: 2
17/12/2012 15:08:08 | TRANSACTIONID: 99 | HOTEL: Millenium & Copthorne Hotels @ CFC | ROOM : HALL | AMOUNT : 3
17/12/2012 15:08:08 | TRANSACTIONID: 99 | STATUS CHANGE: 2
17/12/2012 15:08:10 | TRANSACTIONID: 100 | HOTEL: Millenium & Copthorne Hotels @ CFC | ROOM : HALL | AMOUNT : 10
17/12/2012 15:08:10 | TRANSACTIONID: 100 | STATUS CHANGE: 2
17/12/2012 15:08:11 | TRANSACTIONID: 101 | HOTEL: Millenium & Copthorne Hotels @ CFC | ROOM : HALL | AMOUNT : 3
17/12/2012 15:08:12 | TRANSACTIONID: 101 | STATUS CHANGE: 2
17/12/2012 15:08:13 | TRANSACTIONID: 102 | HOTEL: Millenium & Copthorne Hotels @ CFC | ROOM : HALL | AMOUNT : 20
17/12/2012 15:08:13 | TRANSACTIONID: 102 | STATUS CHANGE: 2
17/12/2012 15:08:15 | TRANSACTIONID: 103 | HOTEL: Millenium & Copthorne Hotels @ CFC | ROOM : HALL | AMOUNT : 10
17/12/2012 15:08:15 | TRANSACTIONID: 103 | STATUS CHANGE: 2
17/12/2012 15:08:16 | TRANSACTIONID: 104 | HOTEL: Millenium & Copthorne Hotels @ CFC | ROOM : HALL | AMOUNT : 20
17/12/2012 15:08:17 | TRANSACTIONID: 104 | STATUS CHANGE: 2
17/12/2012 15:08:18 | TRANSACTIONID: 105 | HOTEL: Millenium & Copthorne Hotels @ CFC | ROOM : HALL | AMOUNT : 50
17/12/2012 15:08:18 | TRANSACTIONID: 105 | STATUS CHANGE: 2
17/12/2012 15:08:19 | TRANSACTIONID: 106 | HOTEL: Millenium & Copthorne Hotels @ CFC | ROOM : HALL | AMOUNT : 50
17/12/2012 15:08:20 | TRANSACTIONID: 106 | STATUS CHANGE: 2
17/12/2012 15:08:21 | TRANSACTIONID: 107 | HOTEL: Millenium & Copthorne Hotels @ CFC | ROOM : HALL | AMOUNT : 20
17/12/2012 15:08:22 | TRANSACTIONID: 107 | STATUS CHANGE: 2
17/12/2012 15:08:23 | TRANSACTIONID: 108 | HOTEL: Millenium & Copthorne Hotels @ CFC | ROOM : HALL | AMOUNT : 0
17/12/2012 15:08:23 | TRANSACTIONID: 108 | STATUS CHANGE: 2
17/12/2012 15:08:24 | TRANSACTIONID: 112 | HOTEL: Millenium & Copthorne Hotels @ CFC | ROOM : HALL | AMOUNT : 0
17/12/2012 15:08:25 | TRANSACTIONID: 112 | STATUS CHANGE: 2
17/12/2012 15:08:26 | TRANSACTIONID: 114 | HOTEL: Millenium & Copthorne Hotels @ CFC | ROOM : HALL | AMOUNT : 0
17/12/2012 15:08:27 | TRANSACTIONID: 114 | STATUS CHANGE: 2
17/12/2012 15:08:28 | TRANSACTIONID: 115 | HOTEL: Millenium & Copthorne Hotels @ CFC | ROOM : HALL | AMOUNT : 5
17/12/2012 15:08:28 | TRANSACTIONID: 115 | STATUS CHANGE: 2
17/12/2012 15:08:29 | TRANSACTIONID: 116 | HOTEL: Millenium & Copthorne Hotels @ CFC | ROOM : HALL | AMOUNT : 0
17/12/2012 15:08:30 | TRANSACTIONID: 116 | STATUS CHANGE: 2
17/12/2012 15:08:30 | CHECK START
17/12/2012 15:08:33 | NEW ITEMS: 52
17/12/2012 15:08:34 | TRANSACTIONID: 117 | HOTEL: Millenium & Copthorne Hotels @ CFC | ROOM : HALL | AMOUNT : 20
17/12/2012 15:08:34 | TRANSACTIONID: 117 | STATUS CHANGE: 2
17/12/2012 15:08:35 | TRANSACTIONID: 118 | HOTEL: Millenium & Copthorne Hotels @ CFC | ROOM : HALL | AMOUNT : 10
17/12/2012 15:08:36 | TRANSACTIONID: 118 | STATUS CHANGE: 2
17/12/2012 15:08:37 | TRANSACTIONID: 119 | HOTEL: Millenium & Copthorne Hotels @ CFC | ROOM : HALL | AMOUNT : 3
17/12/2012 15:08:37 | TRANSACTIONID: 119 | STATUS CHANGE: 2
17/12/2012 15:08:38 | TRANSACTIONID: 120 | HOTEL: Millenium & Copthorne Hotels @ CFC | ROOM : HALL | AMOUNT : 0
17/12/2012 15:08:39 | TRANSACTIONID: 120 | STATUS CHANGE: 2
17/12/2012 15:08:40 | TRANSACTIONID: 121 | HOTEL: Millenium & Copthorne Hotels @ CFC | ROOM : HALL | AMOUNT : 0
17/12/2012 15:08:40 | TRANSACTIONID: 121 | STATUS CHANGE: 2
17/12/2012 15:08:41 | TRANSACTIONID: 122 | HOTEL: Millenium & Copthorne Hotels @ CFC | ROOM : HALL | AMOUNT : 0
17/12/2012 15:08:42 | TRANSACTIONID: 122 | STATUS CHANGE: 2
17/12/2012 15:08:43 | TRANSACTIONID: 123 | HOTEL: Millenium & Copthorne Hotels @ CFC | ROOM : HALL | AMOUNT : 10
17/12/2012 15:08:44 | TRANSACTIONID: 123 | STATUS CHANGE: 2
17/12/2012 15:08:45 | TRANSACTIONID: 124 | HOTEL: Millenium & Copthorne Hotels @ CFC | ROOM : HALL | AMOUNT : 0
17/12/2012 15:08:45 | TRANSACTIONID: 124 | STATUS CHANGE: 2
17/12/2012 15:08:46 | TRANSACTIONID: 125 | HOTEL: Millenium & Copthorne Hotels @ CFC | ROOM : HALL | AMOUNT : 0
17/12/2012 15:08:47 | TRANSACTIONID: 125 | STATUS CHANGE: 2
17/12/2012 15:08:48 | TRANSACTIONID: 126 | HOTEL: Millenium & Copthorne Hotels @ CFC | ROOM : HALL | AMOUNT : 10
17/12/2012 15:08:49 | TRANSACTIONID: 126 | STATUS CHANGE: 2
17/12/2012 15:08:50 | TRANSACTIONID: 127 | HOTEL: Millenium & Copthorne Hotels @ CFC | ROOM : HALL | AMOUNT : 10
17/12/2012 15:08:50 | TRANSACTIONID: 127 | STATUS CHANGE: 2
17/12/2012 15:08:51 | TRANSACTIONID: 128 | HOTEL: Millenium & Copthorne Hotels @ CFC | ROOM : HALL | AMOUNT : 10
17/12/2012 15:08:52 | TRANSACTIONID: 128 | STATUS CHANGE: 2
17/12/2012 15:08:53 | TRANSACTIONID: 129 | HOTEL: Millenium & Copthorne Hotels @ CFC | ROOM : HALL | AMOUNT : 10
17/12/2012 15:08:31 | TRANSACTIONID: 117 | HOTEL: Millenium & Copthorne Hotels @ CFC | ROOM : HALL | AMOUNT : 20
17/12/2012 15:08:53 | TRANSACTIONID: 129 | STATUS CHANGE: 2
17/12/2012 15:08:55 | TRANSACTIONID: 130 | HOTEL: Millenium & Copthorne Hotels @ CFC | ROOM : HALL | AMOUNT : 0
17/12/2012 15:08:55 | TRANSACTIONID: 130 | STATUS CHANGE: 2
17/12/2012 15:08:56 | TRANSACTIONID: 131 | HOTEL: Millenium & Copthorne Hotels @ CFC | ROOM : HALL | AMOUNT : 0
17/12/2012 15:08:57 | TRANSACTIONID: 131 | STATUS CHANGE: 2
17/12/2012 15:08:58 | TRANSACTIONID: 137 | HOTEL: Millenium & Copthorne Hotels @ CFC | ROOM : HALL | AMOUNT : 0
17/12/2012 15:08:58 | TRANSACTIONID: 137 | STATUS CHANGE: 2
17/12/2012 15:08:59 | TRANSACTIONID: 138 | HOTEL: Millenium & Copthorne Hotels @ CFC | ROOM : HALL | AMOUNT : 0
17/12/2012 15:09:00 | TRANSACTIONID: 138 | STATUS CHANGE: 2
17/12/2012 15:09:01 | TRANSACTIONID: 139 | HOTEL: Millenium & Copthorne Hotels @ CFC | ROOM : HALL | AMOUNT : 0
17/12/2012 15:09:01 | TRANSACTIONID: 139 | STATUS CHANGE: 2
17/12/2012 15:09:03 | TRANSACTIONID: 140 | HOTEL: Millenium & Copthorne Hotels @ CFC | ROOM : HALL | AMOUNT : 0
17/12/2012 15:09:03 | TRANSACTIONID: 140 | STATUS CHANGE: 2
17/12/2012 15:09:04 | TRANSACTIONID: 141 | HOTEL: Millenium & Copthorne Hotels @ CFC | ROOM : HALL | AMOUNT : 0
17/12/2012 15:09:05 | TRANSACTIONID: 141 | STATUS CHANGE: 2
17/12/2012 15:09:06 | TRANSACTIONID: 142 | HOTEL: Millenium & Copthorne Hotels @ CFC | ROOM : HALL | AMOUNT : 10
17/12/2012 15:09:06 | TRANSACTIONID: 142 | STATUS CHANGE: 2
17/12/2012 15:09:08 | TRANSACTIONID: 156 | HOTEL: Millenium & Copthorne Hotels @ CFC | ROOM : HALL | AMOUNT : 0
17/12/2012 15:09:08 | TRANSACTIONID: 156 | STATUS CHANGE: 2
17/12/2012 15:09:10 | TRANSACTIONID: 158 | HOTEL: Millenium & Copthorne Hotels @ CFC | ROOM : HALL | AMOUNT : 0
17/12/2012 15:09:10 | TRANSACTIONID: 158 | STATUS CHANGE: 2
17/12/2012 15:09:11 | TRANSACTIONID: 160 | HOTEL: Millenium & Copthorne Hotels @ CFC | ROOM : HALL | AMOUNT : 0
17/12/2012 15:09:12 | TRANSACTIONID: 160 | STATUS CHANGE: 2
17/12/2012 15:09:13 | TRANSACTIONID: 161 | HOTEL: Millenium & Copthorne Hotels @ CFC | ROOM : HALL | AMOUNT : 0
17/12/2012 15:09:14 | TRANSACTIONID: 161 | STATUS CHANGE: 2
17/12/2012 15:09:15 | TRANSACTIONID: 162 | HOTEL: Millenium & Copthorne Hotels @ CFC | ROOM : HALL | AMOUNT : 0
17/12/2012 15:08:53 | TRANSACTIONID: 117 | STATUS CHANGE: 2
17/12/2012 15:09:16 | TRANSACTIONID: 162 | STATUS CHANGE: 2
17/12/2012 15:09:17 | TRANSACTIONID: 163 | HOTEL: Millenium & Copthorne Hotels @ CFC | ROOM : HALL | AMOUNT : 0
17/12/2012 15:09:17 | TRANSACTIONID: 163 | STATUS CHANGE: 2
17/12/2012 15:09:18 | TRANSACTIONID: 164 | HOTEL: Millenium & Copthorne Hotels @ CFC | ROOM : HALL | AMOUNT : 0
17/12/2012 15:09:19 | TRANSACTIONID: 164 | STATUS CHANGE: 2
17/12/2012 15:09:20 | TRANSACTIONID: 165 | HOTEL: Millenium & Copthorne Hotels @ CFC | ROOM : HALL | AMOUNT : 0
17/12/2012 15:09:20 | TRANSACTIONID: 165 | STATUS CHANGE: 2
17/12/2012 15:09:21 | TRANSACTIONID: 166 | HOTEL: Millenium & Copthorne Hotels @ CFC | ROOM : HALL | AMOUNT : 0
17/12/2012 15:09:22 | TRANSACTIONID: 166 | STATUS CHANGE: 2
17/12/2012 15:09:23 | TRANSACTIONID: 167 | HOTEL: Millenium & Copthorne Hotels @ CFC | ROOM : HALL | AMOUNT : 0
17/12/2012 15:09:24 | TRANSACTIONID: 167 | STATUS CHANGE: 2
17/12/2012 15:09:25 | TRANSACTIONID: 168 | HOTEL: Millenium & Copthorne Hotels @ CFC | ROOM : HALL | AMOUNT : 0
17/12/2012 15:09:25 | TRANSACTIONID: 168 | STATUS CHANGE: 2
17/12/2012 15:09:27 | TRANSACTIONID: 169 | HOTEL: Millenium & Copthorne Hotels @ CFC | ROOM : HALL | AMOUNT : 0
17/12/2012 15:09:27 | TRANSACTIONID: 169 | STATUS CHANGE: 2
17/12/2012 15:09:28 | TRANSACTIONID: 170 | HOTEL: Millenium & Copthorne Hotels @ CFC | ROOM : HALL | AMOUNT : 0
17/12/2012 15:09:29 | TRANSACTIONID: 170 | STATUS CHANGE: 2
17/12/2012 15:09:29 | TRANSACTIONID: 171 | HOTEL: Millenium & Copthorne Hotels @ CFC | ROOM : HALL | AMOUNT : 0
17/12/2012 15:09:30 | TRANSACTIONID: 171 | STATUS CHANGE: 2
17/12/2012 15:09:31 | TRANSACTIONID: 172 | HOTEL: Millenium & Copthorne Hotels @ CFC | ROOM : HALL | AMOUNT : 0
17/12/2012 15:09:31 | TRANSACTIONID: 172 | STATUS CHANGE: 2
17/12/2012 15:09:32 | TRANSACTIONID: 173 | HOTEL: Millenium & Copthorne Hotels @ CFC | ROOM : HALL | AMOUNT : 0
17/12/2012 15:09:33 | TRANSACTIONID: 173 | STATUS CHANGE: 2
17/12/2012 15:09:34 | TRANSACTIONID: 174 | HOTEL: Millenium & Copthorne Hotels @ CFC | ROOM : HALL | AMOUNT : 0
17/12/2012 15:09:16 | TRANSACTIONID: 118 | HOTEL: Millenium & Copthorne Hotels @ CFC | ROOM : HALL | AMOUNT : 10
17/12/2012 15:09:35 | TRANSACTIONID: 174 | STATUS CHANGE: 2
17/12/2012 15:09:36 | TRANSACTIONID: 175 | HOTEL: Millenium & Copthorne Hotels @ CFC | ROOM : HALL | AMOUNT : 0
17/12/2012 15:09:36 | TRANSACTIONID: 175 | STATUS CHANGE: 2
17/12/2012 15:09:37 | TRANSACTIONID: 176 | HOTEL: Millenium & Copthorne Hotels @ CFC | ROOM : HALL | AMOUNT : 0
17/12/2012 15:09:38 | TRANSACTIONID: 176 | STATUS CHANGE: 2
17/12/2012 15:09:39 | TRANSACTIONID: 177 | HOTEL: Millenium & Copthorne Hotels @ CFC | ROOM : HALL | AMOUNT : 0
17/12/2012 15:09:40 | TRANSACTIONID: 177 | STATUS CHANGE: 2
17/12/2012 15:09:41 | TRANSACTIONID: 178 | HOTEL: Millenium & Copthorne Hotels @ CFC | ROOM : HALL | AMOUNT : 0
17/12/2012 15:09:41 | TRANSACTIONID: 178 | STATUS CHANGE: 2
17/12/2012 15:09:42 | TRANSACTIONID: 179 | HOTEL: Millenium & Copthorne Hotels @ CFC | ROOM : HALL | AMOUNT : 0
17/12/2012 15:09:43 | TRANSACTIONID: 179 | STATUS CHANGE: 2
17/12/2012 15:09:44 | TRANSACTIONID: 180 | HOTEL: Millenium & Copthorne Hotels @ CFC | ROOM : HALL | AMOUNT : 0
17/12/2012 15:09:45 | TRANSACTIONID: 180 | STATUS CHANGE: 2
17/12/2012 15:09:46 | TRANSACTIONID: 181 | HOTEL: Millenium & Copthorne Hotels @ CFC | ROOM : HALL | AMOUNT : 0
17/12/2012 15:09:46 | TRANSACTIONID: 181 | STATUS CHANGE: 2
17/12/2012 15:09:47 | TRANSACTIONID: 182 | HOTEL: Millenium & Copthorne Hotels @ CFC | ROOM : HALL | AMOUNT : 0
17/12/2012 15:09:48 | TRANSACTIONID: 182 | STATUS CHANGE: 2
17/12/2012 15:09:49 | TRANSACTIONID: 183 | HOTEL: Millenium & Copthorne Hotels @ CFC | ROOM : HALL | AMOUNT : 0
17/12/2012 15:09:35 | TRANSACTIONID: 118 | STATUS CHANGE: 2
17/12/2012 15:09:49 | TRANSACTIONID: 183 | STATUS CHANGE: 2
17/12/2012 15:09:51 | TRANSACTIONID: 184 | HOTEL: Millenium & Copthorne Hotels @ CFC | ROOM : HALL | AMOUNT : 0
17/12/2012 15:09:52 | TRANSACTIONID: 184 | STATUS CHANGE: 2
17/12/2012 15:09:53 | TRANSACTIONID: 185 | HOTEL: Millenium & Copthorne Hotels @ CFC | ROOM : HALL | AMOUNT : 0
17/12/2012 15:09:53 | TRANSACTIONID: 185 | STATUS CHANGE: 2
17/12/2012 15:09:54 | TRANSACTIONID: 186 | HOTEL: Millenium & Copthorne Hotels @ CFC | ROOM : HALL | AMOUNT : 0
17/12/2012 15:09:55 | TRANSACTIONID: 186 | STATUS CHANGE: 2
17/12/2012 15:09:56 | TRANSACTIONID: 187 | HOTEL: Millenium & Copthorne Hotels @ CFC | ROOM : HALL | AMOUNT : 0
17/12/2012 15:09:57 | TRANSACTIONID: 187 | STATUS CHANGE: 2
17/12/2012 15:09:59 | TRANSACTIONID: 188 | HOTEL: Millenium & Copthorne Hotels @ CFC | ROOM : HALL | AMOUNT : 0
17/12/2012 15:09:59 | TRANSACTIONID: 188 | STATUS CHANGE: 2
17/12/2012 15:10:02 | CHECK END
17/12/2012 15:09:50 | TRANSACTIONID: 119 | HOTEL: Millenium & Copthorne Hotels @ CFC | ROOM : HALL | AMOUNT : 3
17/12/2012 15:10:02 | CHECK START
17/12/2012 15:10:02 | NEW ITEMS: 0
17/12/2012 15:10:05 | CHECK END
17/12/2012 15:10:03 | TRANSACTIONID: 119 | STATUS CHANGE: 2
17/12/2012 15:10:06 | TRANSACTIONID: 120 | HOTEL: Millenium & Copthorne Hotels @ CFC | ROOM : HALL | AMOUNT : 0
17/12/2012 15:10:06 | TRANSACTIONID: 120 | STATUS CHANGE: 2
17/12/2012 15:10:07 | TRANSACTIONID: 121 | HOTEL: Millenium & Copthorne Hotels @ CFC | ROOM : HALL | AMOUNT : 0
17/12/2012 15:10:08 | TRANSACTIONID: 121 | STATUS CHANGE: 2
17/12/2012 15:10:10 | TRANSACTIONID: 122 | HOTEL: Millenium & Copthorne Hotels @ CFC | ROOM : HALL | AMOUNT : 0
17/12/2012 15:10:10 | TRANSACTIONID: 122 | STATUS CHANGE: 2
17/12/2012 15:10:11 | TRANSACTIONID: 123 | HOTEL: Millenium & Copthorne Hotels @ CFC | ROOM : HALL | AMOUNT : 10
17/12/2012 15:10:12 | TRANSACTIONID: 123 | STATUS CHANGE: 2
17/12/2012 16:46:06 | CHECK START
17/12/2012 16:46:08 | NEW ITEMS: 67
17/12/2012 16:46:09 | TRANSACTIONID: 98 | HOTEL: Millenium & Copthorne Hotels @ CFC | ROOM : HALL | AMOUNT : 20
17/12/2012 16:46:10 | TRANSACTIONID: 98 | STATUS CHANGE: 2
17/12/2012 16:46:11 | TRANSACTIONID: 99 | HOTEL: Millenium & Copthorne Hotels @ CFC | ROOM : HALL | AMOUNT : 3
17/12/2012 16:46:12 | TRANSACTIONID: 99 | STATUS CHANGE: 2
17/12/2012 16:46:12 | TRANSACTIONID: 100 | HOTEL: Millenium & Copthorne Hotels @ CFC | ROOM : HALL | AMOUNT : 10
17/12/2012 16:46:13 | TRANSACTIONID: 100 | STATUS CHANGE: 2
17/12/2012 16:46:14 | TRANSACTIONID: 101 | HOTEL: Millenium & Copthorne Hotels @ CFC | ROOM : HALL | AMOUNT : 3
17/12/2012 16:48:30 | CHECK START
17/12/2012 16:48:33 | NEW ITEMS: 63
17/12/2012 16:48:33 | TRANSACTIONID: 102 | HOTEL: Millenium & Copthorne Hotels @ CFC | ROOM : HALL | AMOUNT : 20
17/12/2012 16:48:34 | TRANSACTIONID: 102 | STATUS CHANGE: 2
17/12/2012 16:48:35 | TRANSACTIONID: 103 | HOTEL: Millenium & Copthorne Hotels @ CFC | ROOM : HALL | AMOUNT : 10
17/12/2012 16:48:36 | TRANSACTIONID: 103 | STATUS CHANGE: 2
17/12/2012 16:48:37 | TRANSACTIONID: 104 | HOTEL: Millenium & Copthorne Hotels @ CFC | ROOM : HALL | AMOUNT : 20
17/12/2012 16:48:37 | TRANSACTIONID: 104 | STATUS CHANGE: 2
17/12/2012 16:48:38 | TRANSACTIONID: 105 | HOTEL: Millenium & Copthorne Hotels @ CFC | ROOM : HALL | AMOUNT : 50
17/12/2012 16:48:39 | TRANSACTIONID: 105 | STATUS CHANGE: 2
17/12/2012 16:48:40 | TRANSACTIONID: 106 | HOTEL: Millenium & Copthorne Hotels @ CFC | ROOM : HALL | AMOUNT : 50
17/12/2012 16:48:40 | TRANSACTIONID: 106 | STATUS CHANGE: 2
17/12/2012 16:48:41 | TRANSACTIONID: 107 | HOTEL: Millenium & Copthorne Hotels @ CFC | ROOM : HALL | AMOUNT : 20
17/12/2012 16:48:42 | TRANSACTIONID: 107 | STATUS CHANGE: 2
17/12/2012 16:48:42 | TRANSACTIONID: 108 | HOTEL: Millenium & Copthorne Hotels @ CFC | ROOM : HALL | AMOUNT : 0
17/12/2012 16:48:43 | TRANSACTIONID: 108 | STATUS CHANGE: 2
17/12/2012 16:48:44 | TRANSACTIONID: 112 | HOTEL: Millenium & Copthorne Hotels @ CFC | ROOM : HALL | AMOUNT : 0
17/12/2012 16:48:44 | TRANSACTIONID: 112 | STATUS CHANGE: 2
17/12/2012 16:48:45 | TRANSACTIONID: 114 | HOTEL: Millenium & Copthorne Hotels @ CFC | ROOM : HALL | AMOUNT : 0
17/12/2012 16:48:46 | TRANSACTIONID: 114 | STATUS CHANGE: 2
17/12/2012 16:48:46 | TRANSACTIONID: 115 | HOTEL: Millenium & Copthorne Hotels @ CFC | ROOM : HALL | AMOUNT : 5
17/12/2012 16:48:47 | TRANSACTIONID: 115 | STATUS CHANGE: 2
17/12/2012 16:48:48 | TRANSACTIONID: 116 | HOTEL: Millenium & Copthorne Hotels @ CFC | ROOM : HALL | AMOUNT : 0
17/12/2012 16:48:48 | TRANSACTIONID: 116 | STATUS CHANGE: 2
17/12/2012 16:48:49 | TRANSACTIONID: 117 | HOTEL: Millenium & Copthorne Hotels @ CFC | ROOM : HALL | AMOUNT : 20
17/12/2012 16:48:50 | TRANSACTIONID: 117 | STATUS CHANGE: 2
17/12/2012 16:48:51 | TRANSACTIONID: 118 | HOTEL: Millenium & Copthorne Hotels @ CFC | ROOM : HALL | AMOUNT : 10
17/12/2012 16:48:51 | TRANSACTIONID: 118 | STATUS CHANGE: 2
17/12/2012 16:48:52 | TRANSACTIONID: 119 | HOTEL: Millenium & Copthorne Hotels @ CFC | ROOM : HALL | AMOUNT : 3
17/12/2012 16:48:52 | TRANSACTIONID: 119 | STATUS CHANGE: 2
17/12/2012 16:48:53 | TRANSACTIONID: 120 | HOTEL: Millenium & Copthorne Hotels @ CFC | ROOM : HALL | AMOUNT : 0
17/12/2012 16:48:54 | TRANSACTIONID: 120 | STATUS CHANGE: 2
17/12/2012 16:48:55 | TRANSACTIONID: 121 | HOTEL: Millenium & Copthorne Hotels @ CFC | ROOM : HALL | AMOUNT : 0
17/12/2012 16:48:55 | TRANSACTIONID: 121 | STATUS CHANGE: 2
17/12/2012 16:48:56 | TRANSACTIONID: 122 | HOTEL: Millenium & Copthorne Hotels @ CFC | ROOM : HALL | AMOUNT : 0
17/12/2012 16:48:57 | TRANSACTIONID: 122 | STATUS CHANGE: 2
17/12/2012 16:48:57 | TRANSACTIONID: 123 | HOTEL: Millenium & Copthorne Hotels @ CFC | ROOM : HALL | AMOUNT : 10
17/12/2012 16:48:58 | TRANSACTIONID: 123 | STATUS CHANGE: 2
17/12/2012 16:48:59 | TRANSACTIONID: 124 | HOTEL: Millenium & Copthorne Hotels @ CFC | ROOM : HALL | AMOUNT : 0
17/12/2012 16:49:00 | TRANSACTIONID: 124 | STATUS CHANGE: 2
17/12/2012 16:49:00 | TRANSACTIONID: 125 | HOTEL: Millenium & Copthorne Hotels @ CFC | ROOM : HALL | AMOUNT : 0
17/12/2012 16:49:01 | TRANSACTIONID: 125 | STATUS CHANGE: 2
17/12/2012 16:49:02 | TRANSACTIONID: 126 | HOTEL: Millenium & Copthorne Hotels @ CFC | ROOM : HALL | AMOUNT : 10
17/12/2012 16:49:02 | TRANSACTIONID: 126 | STATUS CHANGE: 2
17/12/2012 16:49:03 | TRANSACTIONID: 127 | HOTEL: Millenium & Copthorne Hotels @ CFC | ROOM : HALL | AMOUNT : 10
17/12/2012 16:49:05 | TRANSACTIONID: 127 | STATUS CHANGE: 2
17/12/2012 16:49:06 | TRANSACTIONID: 128 | HOTEL: Millenium & Copthorne Hotels @ CFC | ROOM : HALL | AMOUNT : 10
17/12/2012 16:49:06 | TRANSACTIONID: 128 | STATUS CHANGE: 2
17/12/2012 16:49:07 | TRANSACTIONID: 129 | HOTEL: Millenium & Copthorne Hotels @ CFC | ROOM : HALL | AMOUNT : 10
17/12/2012 16:49:08 | TRANSACTIONID: 129 | STATUS CHANGE: 2
17/12/2012 16:49:09 | TRANSACTIONID: 130 | HOTEL: Millenium & Copthorne Hotels @ CFC | ROOM : HALL | AMOUNT : 0
17/12/2012 16:49:09 | TRANSACTIONID: 130 | STATUS CHANGE: 2
17/12/2012 16:49:10 | TRANSACTIONID: 131 | HOTEL: Millenium & Copthorne Hotels @ CFC | ROOM : HALL | AMOUNT : 0
17/12/2012 16:49:10 | TRANSACTIONID: 131 | STATUS CHANGE: 2
17/12/2012 16:49:11 | TRANSACTIONID: 137 | HOTEL: Millenium & Copthorne Hotels @ CFC | ROOM : HALL | AMOUNT : 0
17/12/2012 16:49:12 | TRANSACTIONID: 137 | STATUS CHANGE: 2
17/12/2012 16:49:13 | TRANSACTIONID: 138 | HOTEL: Millenium & Copthorne Hotels @ CFC | ROOM : HALL | AMOUNT : 0
17/12/2012 16:49:13 | TRANSACTIONID: 138 | STATUS CHANGE: 2
17/12/2012 16:49:14 | TRANSACTIONID: 139 | HOTEL: Millenium & Copthorne Hotels @ CFC | ROOM : HALL | AMOUNT : 0
17/12/2012 16:49:15 | TRANSACTIONID: 139 | STATUS CHANGE: 2
17/12/2012 16:49:15 | TRANSACTIONID: 140 | HOTEL: Millenium & Copthorne Hotels @ CFC | ROOM : HALL | AMOUNT : 0
17/12/2012 16:49:16 | TRANSACTIONID: 140 | STATUS CHANGE: 2
17/12/2012 16:49:17 | TRANSACTIONID: 141 | HOTEL: Millenium & Copthorne Hotels @ CFC | ROOM : HALL | AMOUNT : 0
17/12/2012 16:49:17 | TRANSACTIONID: 141 | STATUS CHANGE: 2
17/12/2012 16:49:18 | TRANSACTIONID: 142 | HOTEL: Millenium & Copthorne Hotels @ CFC | ROOM : HALL | AMOUNT : 10
17/12/2012 16:49:19 | TRANSACTIONID: 142 | STATUS CHANGE: 2
17/12/2012 16:49:20 | TRANSACTIONID: 156 | HOTEL: Millenium & Copthorne Hotels @ CFC | ROOM : HALL | AMOUNT : 0
17/12/2012 16:49:20 | TRANSACTIONID: 156 | STATUS CHANGE: 2
17/12/2012 16:49:21 | TRANSACTIONID: 158 | HOTEL: Millenium & Copthorne Hotels @ CFC | ROOM : HALL | AMOUNT : 0
17/12/2012 16:49:22 | TRANSACTIONID: 158 | STATUS CHANGE: 2
17/12/2012 16:49:22 | TRANSACTIONID: 160 | HOTEL: Millenium & Copthorne Hotels @ CFC | ROOM : HALL | AMOUNT : 0
17/12/2012 16:49:23 | TRANSACTIONID: 160 | STATUS CHANGE: 2
17/12/2012 16:49:24 | TRANSACTIONID: 161 | HOTEL: Millenium & Copthorne Hotels @ CFC | ROOM : HALL | AMOUNT : 0
17/12/2012 16:49:24 | TRANSACTIONID: 161 | STATUS CHANGE: 2
17/12/2012 16:49:25 | TRANSACTIONID: 162 | HOTEL: Millenium & Copthorne Hotels @ CFC | ROOM : HALL | AMOUNT : 0
17/12/2012 16:49:26 | TRANSACTIONID: 162 | STATUS CHANGE: 2
17/12/2012 16:49:27 | TRANSACTIONID: 163 | HOTEL: Millenium & Copthorne Hotels @ CFC | ROOM : HALL | AMOUNT : 0
17/12/2012 16:49:27 | TRANSACTIONID: 163 | STATUS CHANGE: 2
17/12/2012 16:49:28 | TRANSACTIONID: 164 | HOTEL: Millenium & Copthorne Hotels @ CFC | ROOM : HALL | AMOUNT : 0
17/12/2012 16:49:28 | TRANSACTIONID: 164 | STATUS CHANGE: 2
17/12/2012 16:49:29 | TRANSACTIONID: 165 | HOTEL: Millenium & Copthorne Hotels @ CFC | ROOM : HALL | AMOUNT : 0
17/12/2012 16:49:30 | TRANSACTIONID: 165 | STATUS CHANGE: 2
17/12/2012 16:49:31 | TRANSACTIONID: 166 | HOTEL: Millenium & Copthorne Hotels @ CFC | ROOM : HALL | AMOUNT : 0
17/12/2012 16:49:31 | TRANSACTIONID: 166 | STATUS CHANGE: 2
17/12/2012 16:49:32 | TRANSACTIONID: 167 | HOTEL: Millenium & Copthorne Hotels @ CFC | ROOM : HALL | AMOUNT : 0
17/12/2012 16:49:33 | TRANSACTIONID: 167 | STATUS CHANGE: 2
17/12/2012 16:49:33 | TRANSACTIONID: 168 | HOTEL: Millenium & Copthorne Hotels @ CFC | ROOM : HALL | AMOUNT : 0
17/12/2012 16:49:34 | TRANSACTIONID: 168 | STATUS CHANGE: 2
17/12/2012 16:49:35 | TRANSACTIONID: 169 | HOTEL: Millenium & Copthorne Hotels @ CFC | ROOM : HALL | AMOUNT : 0
17/12/2012 16:49:35 | TRANSACTIONID: 169 | STATUS CHANGE: 2
17/12/2012 16:49:36 | TRANSACTIONID: 170 | HOTEL: Millenium & Copthorne Hotels @ CFC | ROOM : HALL | AMOUNT : 0
17/12/2012 16:49:37 | TRANSACTIONID: 170 | STATUS CHANGE: 2
17/12/2012 16:49:38 | TRANSACTIONID: 171 | HOTEL: Millenium & Copthorne Hotels @ CFC | ROOM : HALL | AMOUNT : 0
17/12/2012 16:49:38 | TRANSACTIONID: 171 | STATUS CHANGE: 2
17/12/2012 16:49:39 | TRANSACTIONID: 172 | HOTEL: Millenium & Copthorne Hotels @ CFC | ROOM : HALL | AMOUNT : 0
17/12/2012 16:49:40 | TRANSACTIONID: 172 | STATUS CHANGE: 2
17/12/2012 16:49:40 | TRANSACTIONID: 173 | HOTEL: Millenium & Copthorne Hotels @ CFC | ROOM : HALL | AMOUNT : 0
17/12/2012 16:49:41 | TRANSACTIONID: 173 | STATUS CHANGE: 2
17/12/2012 16:49:42 | TRANSACTIONID: 174 | HOTEL: Millenium & Copthorne Hotels @ CFC | ROOM : HALL | AMOUNT : 0
17/12/2012 16:49:42 | TRANSACTIONID: 174 | STATUS CHANGE: 2
17/12/2012 16:49:43 | TRANSACTIONID: 175 | HOTEL: Millenium & Copthorne Hotels @ CFC | ROOM : HALL | AMOUNT : 0
17/12/2012 16:49:44 | TRANSACTIONID: 175 | STATUS CHANGE: 2
17/12/2012 16:49:45 | TRANSACTIONID: 176 | HOTEL: Millenium & Copthorne Hotels @ CFC | ROOM : HALL | AMOUNT : 0
17/12/2012 16:49:45 | TRANSACTIONID: 176 | STATUS CHANGE: 2
17/12/2012 16:49:46 | TRANSACTIONID: 177 | HOTEL: Millenium & Copthorne Hotels @ CFC | ROOM : HALL | AMOUNT : 0
17/12/2012 16:49:47 | TRANSACTIONID: 177 | STATUS CHANGE: 2
17/12/2012 16:49:47 | TRANSACTIONID: 178 | HOTEL: Millenium & Copthorne Hotels @ CFC | ROOM : HALL | AMOUNT : 0
17/12/2012 16:49:48 | TRANSACTIONID: 178 | STATUS CHANGE: 2
17/12/2012 16:49:49 | TRANSACTIONID: 179 | HOTEL: Millenium & Copthorne Hotels @ CFC | ROOM : HALL | AMOUNT : 0
17/12/2012 16:49:49 | TRANSACTIONID: 179 | STATUS CHANGE: 2
17/12/2012 16:49:50 | TRANSACTIONID: 180 | HOTEL: Millenium & Copthorne Hotels @ CFC | ROOM : HALL | AMOUNT : 0
17/12/2012 16:49:51 | TRANSACTIONID: 180 | STATUS CHANGE: 2
17/12/2012 16:49:52 | TRANSACTIONID: 181 | HOTEL: Millenium & Copthorne Hotels @ CFC | ROOM : HALL | AMOUNT : 0
17/12/2012 16:49:52 | TRANSACTIONID: 181 | STATUS CHANGE: 2
17/12/2012 16:49:53 | TRANSACTIONID: 182 | HOTEL: Millenium & Copthorne Hotels @ CFC | ROOM : HALL | AMOUNT : 0
17/12/2012 16:49:54 | TRANSACTIONID: 182 | STATUS CHANGE: 2
17/12/2012 16:49:55 | TRANSACTIONID: 183 | HOTEL: Millenium & Copthorne Hotels @ CFC | ROOM : HALL | AMOUNT : 0
17/12/2012 16:49:55 | TRANSACTIONID: 183 | STATUS CHANGE: 2
17/12/2012 16:49:56 | TRANSACTIONID: 184 | HOTEL: Millenium & Copthorne Hotels @ CFC | ROOM : HALL | AMOUNT : 0
17/12/2012 16:49:57 | TRANSACTIONID: 184 | STATUS CHANGE: 2
17/12/2012 17:03:46 | CHECK START
17/12/2012 17:03:48 | NEW ITEMS: 5
17/12/2012 17:03:49 | TRANSACTIONID: 185 | HOTEL: Millenium & Copthorne Hotels @ CFC | ROOM : HALL | AMOUNT : 0
17/12/2012 17:04:09 | TRANSACTIONID: 185 | STATUS CHANGE: 2
17/12/2012 17:04:10 | TRANSACTIONID: 186 | HOTEL: Millenium & Copthorne Hotels @ CFC | ROOM : HALL | AMOUNT : 0
17/12/2012 17:04:16 | CHECK START
17/12/2012 17:04:21 | NEW ITEMS: 3
17/12/2012 17:04:24 | TRANSACTIONID: 187 | HOTEL: Millenium & Copthorne Hotels @ CFC | ROOM : HALL | AMOUNT : 0
17/12/2012 17:04:18 | TRANSACTIONID: 186 | STATUS CHANGE: 2
17/12/2012 17:04:27 | TRANSACTIONID: 187 | STATUS CHANGE: 2
17/12/2012 17:04:28 | TRANSACTIONID: 188 | HOTEL: Millenium & Copthorne Hotels @ CFC | ROOM : HALL | AMOUNT : 0
17/12/2012 17:04:29 | TRANSACTIONID: 188 | STATUS CHANGE: 2
17/12/2012 17:04:30 | TRANSACTIONID: 189 | HOTEL: Millenium & Copthorne Hotels @ CFC | ROOM : HALL | AMOUNT : 0
17/12/2012 17:04:34 | TRANSACTIONID: 189 | STATUS CHANGE: 2
17/12/2012 17:04:37 | TRANSACTIONID: 187 | HOTEL: Millenium & Copthorne Hotels @ CFC | ROOM : HALL | AMOUNT : 0
17/12/2012 17:04:53 | TRANSACTIONID: 188 | HOTEL: Millenium & Copthorne Hotels @ CFC | ROOM : HALL | AMOUNT : 0
17/12/2012 17:04:28 | TRANSACTIONID: 187 | HOTEL: Millenium & Copthorne Hotels @ CFC | ROOM : HALL | AMOUNT : 0
17/12/2012 17:05:37 | CHECK START
17/12/2012 17:05:38 | NEW ITEMS: 0
17/12/2012 17:05:40 | CHECK END
17/12/2012 17:06:07 | CHECK START
17/12/2012 17:06:08 | NEW ITEMS: 0
17/12/2012 17:06:10 | CHECK END
17/12/2012 17:07:13 | CHECK START
17/12/2012 17:07:16 | NEW ITEMS: 0
17/12/2012 17:07:51 | CHECK START
17/12/2012 17:07:52 | NEW ITEMS: 0
17/12/2012 17:08:01 | TRANSACTIONID: 98 | HOTEL: Millenium & Copthorne Hotels @ CFC | ROOM : HALL | AMOUNT : 20
17/12/2012 17:08:40 | CHECK START
17/12/2012 17:08:41 | NEW ITEMS: 0
17/12/2012 17:08:48 | TRANSACTIONID: 98 | HOTEL: Millenium & Copthorne Hotels @ CFC | ROOM : HALL | AMOUNT : 20
17/12/2012 17:09:33 | TRANSACTIONID: 99 | HOTEL: Millenium & Copthorne Hotels @ CFC | ROOM : HALL | AMOUNT : 3
17/12/2012 17:12:43 | CHECK START
17/12/2012 17:12:44 | NEW ITEMS: 0
17/12/2012 17:12:47 | TRANSACTIONID: 98 | HOTEL: Millenium & Copthorne Hotels @ CFC | ROOM : HALL | AMOUNT : 20
17/12/2012 17:43:25 | CHECK START
17/12/2012 17:43:26 | NEW ITEMS: 0
17/12/2012 17:43:29 | TRANSACTIONID: 98 | HOTEL: Millenium & Copthorne Hotels @ CFC | ROOM : HALL | AMOUNT : 20
17/12/2012 17:43:35 | TRANSACTIONID: 99 | HOTEL: Millenium & Copthorne Hotels @ CFC | ROOM : HALL | AMOUNT : 3
17/12/2012 17:43:39 | TRANSACTIONID: 100 | HOTEL: Millenium & Copthorne Hotels @ CFC | ROOM : HALL | AMOUNT : 10
17/12/2012 17:44:16 | CHECK START
17/12/2012 17:44:17 | NEW ITEMS: 0
17/12/2012 17:44:20 | TRANSACTIONID: 98 | HOTEL: Millenium & Copthorne Hotels @ CFC | ROOM : HALL | AMOUNT : 20
17/12/2012 17:44:23 | TRANSACTIONID: 99 | HOTEL: Millenium & Copthorne Hotels @ CFC | ROOM : HALL | AMOUNT : 3
17/12/2012 17:45:08 | CHECK START
17/12/2012 17:45:08 | NEW ITEMS: 0
17/12/2012 17:45:11 | TRANSACTIONID: 98 | HOTEL: Millenium & Copthorne Hotels @ CFC | ROOM : HALL | AMOUNT : 20
17/12/2012 17:45:38 | CHECK START
17/12/2012 17:45:41 | NEW ITEMS: 0
17/12/2012 17:45:44 | TRANSACTIONID: 98 | HOTEL: Millenium & Copthorne Hotels @ CFC | ROOM : HALL | AMOUNT : 20
17/12/2012 17:45:51 | TRANSACTIONID: 99 | HOTEL: Millenium & Copthorne Hotels @ CFC | ROOM : HALL | AMOUNT : 3
17/12/2012 17:45:55 | TRANSACTIONID: 100 | HOTEL: Millenium & Copthorne Hotels @ CFC | ROOM : HALL | AMOUNT : 10
17/12/2012 17:45:59 | TRANSACTIONID: 101 | HOTEL: Millenium & Copthorne Hotels @ CFC | ROOM : HALL | AMOUNT : 3
17/12/2012 17:46:05 | TRANSACTIONID: 102 | HOTEL: Millenium & Copthorne Hotels @ CFC | ROOM : HALL | AMOUNT : 20
17/12/2012 17:46:09 | TRANSACTIONID: 103 | HOTEL: Millenium & Copthorne Hotels @ CFC | ROOM : HALL | AMOUNT : 10
17/12/2012 17:46:45 | CHECK START
17/12/2012 17:46:46 | NEW ITEMS: 0
17/12/2012 17:46:51 | TRANSACTIONID: 98 | HOTEL: Millenium & Copthorne Hotels @ CFC | ROOM : HALL | AMOUNT : 20
17/12/2012 17:47:35 | CHECK START
17/12/2012 17:47:37 | NEW ITEMS: 0
17/12/2012 17:47:40 | TRANSACTIONID: 98 | HOTEL: Millenium & Copthorne Hotels @ CFC | ROOM : HALL | AMOUNT : 20
17/12/2012 17:52:51 | CHECK START
17/12/2012 17:52:51 | NEW ITEMS: 0
17/12/2012 17:52:51 | CHECK PENDING REQUEST
17/12/2012 17:52:55 | TRANSACTIONID: 99 | HOTEL: Millenium & Copthorne Hotels @ CFC | ROOM : HALL | AMOUNT : 3
17/12/2012 17:53:02 | TRANSACTIONID: 99 | SEND SUPPORT MAIL
17/12/2012 17:53:06 | TRANSACTIONID: 99 | STATUS CHANGE : 4 | SEND FRONTDESK MAIL
17/12/2012 17:53:07 | TRANSACTIONID: 100 | HOTEL: Millenium & Copthorne Hotels @ CFC | ROOM : HALL | AMOUNT : 10
17/12/2012 17:53:09 | TRANSACTIONID: 100 | SEND SUPPORT MAIL
17/12/2012 17:53:12 | TRANSACTIONID: 100 | STATUS CHANGE : 4 | SEND FRONTDESK MAIL
17/12/2012 17:53:13 | TRANSACTIONID: 101 | HOTEL: Millenium & Copthorne Hotels @ CFC | ROOM : HALL | AMOUNT : 3
17/12/2012 17:53:16 | TRANSACTIONID: 101 | SEND SUPPORT MAIL
17/12/2012 17:53:19 | TRANSACTIONID: 101 | STATUS CHANGE : 4 | SEND FRONTDESK MAIL
17/12/2012 18:04:33 | CHECK START
17/12/2012 18:04:34 | NEW ITEMS: 0
17/12/2012 18:04:34 | CHECK PENDING REQUEST
17/12/2012 18:04:37 | TRANSACTIONID: 102 | HOTEL: Millenium & Copthorne Hotels @ CFC | ROOM : HALL | AMOUNT : 20
17/12/2012 18:04:40 | TRANSACTIONID: 102 | SEND SUPPORT MAIL
17/12/2012 18:04:44 | TRANSACTIONID: 102 | STATUS CHANGE : 4 | SEND FRONTDESK MAIL
17/12/2012 18:04:44 | TRANSACTIONID: 103 | HOTEL: Millenium & Copthorne Hotels @ CFC | ROOM : HALL | AMOUNT : 10
17/12/2012 18:04:47 | TRANSACTIONID: 103 | SEND SUPPORT MAIL
17/12/2012 18:04:50 | TRANSACTIONID: 103 | STATUS CHANGE : 4 | SEND FRONTDESK MAIL
17/12/2012 18:04:51 | TRANSACTIONID: 104 | HOTEL: Millenium & Copthorne Hotels @ CFC | ROOM : HALL | AMOUNT : 20
17/12/2012 18:09:46 | CHECK START
17/12/2012 18:09:47 | NEW ITEMS: 10
17/12/2012 18:09:48 | TRANSACTIONID: 98 | HOTEL: Millenium & Copthorne Hotels @ CFC | ROOM : HALL | AMOUNT : 20
17/12/2012 18:11:10 | CHECK START
17/12/2012 18:11:11 | NEW ITEMS: 10
17/12/2012 18:11:12 | TRANSACTIONID: 98 | HOTEL: Millenium & Copthorne Hotels @ CFC | ROOM : HALL | AMOUNT : 20
17/12/2012 18:13:58 | CHECK START
17/12/2012 18:14:00 | NEW ITEMS: 10
17/12/2012 18:14:01 | TRANSACTIONID: 98 | HOTEL: Millenium & Copthorne Hotels @ CFC | ROOM : HALL | AMOUNT : 20
17/12/2012 18:14:07 | TRANSACTIONID: 98 | STATUS CHANGE: 2
17/12/2012 18:14:08 | TRANSACTIONID: 99 | HOTEL: Millenium & Copthorne Hotels @ CFC | ROOM : HALL | AMOUNT : 3
17/12/2012 18:14:08 | TRANSACTIONID: 99 | STATUS CHANGE: 2
17/12/2012 18:14:09 | TRANSACTIONID: 100 | HOTEL: Millenium & Copthorne Hotels @ CFC | ROOM : HALL | AMOUNT : 10
17/12/2012 18:14:10 | TRANSACTIONID: 100 | STATUS CHANGE: 2
17/12/2012 18:14:10 | TRANSACTIONID: 101 | HOTEL: Millenium & Copthorne Hotels @ CFC | ROOM : HALL | AMOUNT : 3
17/12/2012 18:14:11 | TRANSACTIONID: 101 | STATUS CHANGE: 2
17/12/2012 18:14:12 | TRANSACTIONID: 102 | HOTEL: Millenium & Copthorne Hotels @ CFC | ROOM : HALL | AMOUNT : 20
17/12/2012 18:14:12 | TRANSACTIONID: 102 | STATUS CHANGE: 2
17/12/2012 18:14:13 | TRANSACTIONID: 103 | HOTEL: Millenium & Copthorne Hotels @ CFC | ROOM : HALL | AMOUNT : 10
17/12/2012 18:14:14 | TRANSACTIONID: 103 | STATUS CHANGE: 2
17/12/2012 18:14:15 | TRANSACTIONID: 104 | HOTEL: Millenium & Copthorne Hotels @ CFC | ROOM : HALL | AMOUNT : 20
17/12/2012 18:14:15 | TRANSACTIONID: 104 | STATUS CHANGE: 2
17/12/2012 18:14:16 | TRANSACTIONID: 105 | HOTEL: Millenium & Copthorne Hotels @ CFC | ROOM : HALL | AMOUNT : 50
17/12/2012 18:14:17 | TRANSACTIONID: 105 | STATUS CHANGE: 2
17/12/2012 18:14:17 | TRANSACTIONID: 106 | HOTEL: Millenium & Copthorne Hotels @ CFC | ROOM : HALL | AMOUNT : 50
17/12/2012 18:14:18 | TRANSACTIONID: 106 | STATUS CHANGE: 2
17/12/2012 18:14:19 | TRANSACTIONID: 107 | HOTEL: Millenium & Copthorne Hotels @ CFC | ROOM : HALL | AMOUNT : 20
17/12/2012 18:14:19 | TRANSACTIONID: 107 | STATUS CHANGE: 2
17/12/2012 18:14:19 | CHECK PENDING REQUEST
17/12/2012 18:14:22 | TRANSACTIONID: 98 | HOTEL: Millenium & Copthorne Hotels @ CFC | ROOM : HALL | AMOUNT : 20
17/12/2012 18:14:23 | TRANSACTIONID: 99 | HOTEL: Millenium & Copthorne Hotels @ CFC | ROOM : HALL | AMOUNT : 3
17/12/2012 18:14:24 | TRANSACTIONID: 100 | HOTEL: Millenium & Copthorne Hotels @ CFC | ROOM : HALL | AMOUNT : 10
17/12/2012 18:14:24 | TRANSACTIONID: 101 | HOTEL: Millenium & Copthorne Hotels @ CFC | ROOM : HALL | AMOUNT : 3
17/12/2012 18:14:25 | TRANSACTIONID: 102 | HOTEL: Millenium & Copthorne Hotels @ CFC | ROOM : HALL | AMOUNT : 20
17/12/2012 18:14:26 | TRANSACTIONID: 103 | HOTEL: Millenium & Copthorne Hotels @ CFC | ROOM : HALL | AMOUNT : 10
17/12/2012 18:14:27 | TRANSACTIONID: 104 | HOTEL: Millenium & Copthorne Hotels @ CFC | ROOM : HALL | AMOUNT : 20
17/12/2012 18:14:28 | TRANSACTIONID: 105 | HOTEL: Millenium & Copthorne Hotels @ CFC | ROOM : HALL | AMOUNT : 50
17/12/2012 18:14:28 | CHECK START
17/12/2012 18:14:29 | NEW ITEMS: 0
17/12/2012 18:14:29 | CHECK PENDING REQUEST
17/12/2012 18:14:32 | TRANSACTIONID: 98 | HOTEL: Millenium & Copthorne Hotels @ CFC | ROOM : HALL | AMOUNT : 20
17/12/2012 18:14:33 | TRANSACTIONID: 99 | HOTEL: Millenium & Copthorne Hotels @ CFC | ROOM : HALL | AMOUNT : 3
17/12/2012 18:14:33 | TRANSACTIONID: 100 | HOTEL: Millenium & Copthorne Hotels @ CFC | ROOM : HALL | AMOUNT : 10
17/12/2012 18:14:34 | TRANSACTIONID: 101 | HOTEL: Millenium & Copthorne Hotels @ CFC | ROOM : HALL | AMOUNT : 3
17/12/2012 18:14:35 | TRANSACTIONID: 102 | HOTEL: Millenium & Copthorne Hotels @ CFC | ROOM : HALL | AMOUNT : 20
17/12/2012 18:14:36 | TRANSACTIONID: 103 | HOTEL: Millenium & Copthorne Hotels @ CFC | ROOM : HALL | AMOUNT : 10
17/12/2012 18:14:37 | TRANSACTIONID: 104 | HOTEL: Millenium & Copthorne Hotels @ CFC | ROOM : HALL | AMOUNT : 20
17/12/2012 18:14:38 | TRANSACTIONID: 105 | HOTEL: Millenium & Copthorne Hotels @ CFC | ROOM : HALL | AMOUNT : 50
17/12/2012 18:14:39 | TRANSACTIONID: 106 | HOTEL: Millenium & Copthorne Hotels @ CFC | ROOM : HALL | AMOUNT : 50
17/12/2012 18:14:40 | TRANSACTIONID: 107 | HOTEL: Millenium & Copthorne Hotels @ CFC | ROOM : HALL | AMOUNT : 20
17/12/2012 18:14:41 | TRANSACTIONID: 108 | HOTEL: Millenium & Copthorne Hotels @ CFC | ROOM : HALL | AMOUNT : 0
17/12/2012 18:14:46 | TRANSACTIONID: 108 | STATUS CHANGE : 4 | SEND FRONTDESK MAIL
17/12/2012 18:14:47 | TRANSACTIONID: 112 | HOTEL: Millenium & Copthorne Hotels @ CFC | ROOM : HALL | AMOUNT : 0
17/12/2012 18:14:50 | TRANSACTIONID: 112 | STATUS CHANGE : 4 | SEND FRONTDESK MAIL
17/12/2012 18:14:51 | TRANSACTIONID: 114 | HOTEL: Millenium & Copthorne Hotels @ CFC | ROOM : HALL | AMOUNT : 0
17/12/2012 18:14:55 | TRANSACTIONID: 114 | STATUS CHANGE : 4 | SEND FRONTDESK MAIL
17/12/2012 18:14:56 | TRANSACTIONID: 115 | HOTEL: Millenium & Copthorne Hotels @ CFC | ROOM : HALL | AMOUNT : 5
17/12/2012 18:14:59 | TRANSACTIONID: 115 | STATUS CHANGE : 4 | SEND FRONTDESK MAIL
17/12/2012 18:15:00 | TRANSACTIONID: 116 | HOTEL: Millenium & Copthorne Hotels @ CFC | ROOM : HALL | AMOUNT : 0
17/12/2012 18:15:04 | TRANSACTIONID: 116 | STATUS CHANGE : 4 | SEND FRONTDESK MAIL
17/12/2012 18:15:05 | TRANSACTIONID: 117 | HOTEL: Millenium & Copthorne Hotels @ CFC | ROOM : HALL | AMOUNT : 20
17/12/2012 18:15:09 | TRANSACTIONID: 117 | STATUS CHANGE : 4 | SEND FRONTDESK MAIL
17/12/2012 18:15:10 | TRANSACTIONID: 118 | HOTEL: Millenium & Copthorne Hotels @ CFC | ROOM : HALL | AMOUNT : 10
17/12/2012 18:15:14 | TRANSACTIONID: 118 | STATUS CHANGE : 4 | SEND FRONTDESK MAIL
17/12/2012 18:15:15 | TRANSACTIONID: 119 | HOTEL: Millenium & Copthorne Hotels @ CFC | ROOM : HALL | AMOUNT : 3
17/12/2012 18:15:42 | CHECK START
17/12/2012 18:15:43 | NEW ITEMS: 0
17/12/2012 18:15:43 | CHECK PENDING REQUEST
17/12/2012 18:15:46 | TRANSACTIONID: 98 | HOTEL: Millenium & Copthorne Hotels @ CFC | ROOM : HALL | AMOUNT : 20
17/12/2012 18:15:47 | TRANSACTIONID: 99 | HOTEL: Millenium & Copthorne Hotels @ CFC | ROOM : HALL | AMOUNT : 3
17/12/2012 18:15:47 | TRANSACTIONID: 100 | HOTEL: Millenium & Copthorne Hotels @ CFC | ROOM : HALL | AMOUNT : 10
17/12/2012 18:15:48 | TRANSACTIONID: 101 | HOTEL: Millenium & Copthorne Hotels @ CFC | ROOM : HALL | AMOUNT : 3
17/12/2012 18:15:49 | TRANSACTIONID: 102 | HOTEL: Millenium & Copthorne Hotels @ CFC | ROOM : HALL | AMOUNT : 20
17/12/2012 18:15:50 | TRANSACTIONID: 103 | HOTEL: Millenium & Copthorne Hotels @ CFC | ROOM : HALL | AMOUNT : 10
17/12/2012 18:15:51 | TRANSACTIONID: 104 | HOTEL: Millenium & Copthorne Hotels @ CFC | ROOM : HALL | AMOUNT : 20
17/12/2012 18:15:52 | TRANSACTIONID: 105 | HOTEL: Millenium & Copthorne Hotels @ CFC | ROOM : HALL | AMOUNT : 50
17/12/2012 18:15:53 | TRANSACTIONID: 106 | HOTEL: Millenium & Copthorne Hotels @ CFC | ROOM : HALL | AMOUNT : 50
17/12/2012 18:15:54 | TRANSACTIONID: 107 | HOTEL: Millenium & Copthorne Hotels @ CFC | ROOM : HALL | AMOUNT : 20
17/12/2012 18:15:54 | TRANSACTIONID: 120 | HOTEL: Millenium & Copthorne Hotels @ CFC | ROOM : HALL | AMOUNT : 0
17/12/2012 18:15:58 | TRANSACTIONID: 120 | STATUS CHANGE : 4 | SEND FRONTDESK MAIL
17/12/2012 18:32:35 | CHECK START
17/12/2012 18:32:36 | NEW ITEMS: 7
17/12/2012 18:32:40 | TRANSACTIONID: 98 | HOTEL: Millenium & Copthorne Hotels @ CFC | ROOM : HALL | AMOUNT : 20
17/12/2012 18:32:42 | TRANSACTIONID: 98 | STATUS CHANGE: 2
17/12/2012 18:32:43 | TRANSACTIONID: 99 | HOTEL: Millenium & Copthorne Hotels @ CFC | ROOM : HALL | AMOUNT : 3
17/12/2012 18:32:45 | TRANSACTIONID: 99 | STATUS CHANGE: 2
17/12/2012 18:32:46 | TRANSACTIONID: 100 | HOTEL: Millenium & Copthorne Hotels @ CFC | ROOM : HALL | AMOUNT : 10
17/12/2012 18:32:47 | TRANSACTIONID: 100 | STATUS CHANGE: 2
17/12/2012 18:32:48 | TRANSACTIONID: 101 | HOTEL: Millenium & Copthorne Hotels @ CFC | ROOM : HALL | AMOUNT : 3
17/12/2012 18:32:48 | TRANSACTIONID: 101 | STATUS CHANGE: 2
17/12/2012 18:32:49 | TRANSACTIONID: 102 | HOTEL: Millenium & Copthorne Hotels @ CFC | ROOM : HALL | AMOUNT : 20
17/12/2012 18:32:50 | TRANSACTIONID: 102 | STATUS CHANGE: 2
17/12/2012 18:32:50 | TRANSACTIONID: 103 | HOTEL: Millenium & Copthorne Hotels @ CFC | ROOM : HALL | AMOUNT : 10
17/12/2012 18:32:51 | TRANSACTIONID: 103 | STATUS CHANGE: 2
17/12/2012 18:32:52 | TRANSACTIONID: 104 | HOTEL: Millenium & Copthorne Hotels @ CFC | ROOM : HALL | AMOUNT : 20
17/12/2012 18:32:52 | TRANSACTIONID: 104 | STATUS CHANGE: 2
17/12/2012 18:32:52 | CHECK PENDING REQUEST
17/12/2012 18:32:55 | TRANSACTIONID: 98 | HOTEL: Millenium & Copthorne Hotels @ CFC | ROOM : HALL | AMOUNT : 20
17/12/2012 18:32:56 | TRANSACTIONID: 99 | HOTEL: Millenium & Copthorne Hotels @ CFC | ROOM : HALL | AMOUNT : 3
17/12/2012 18:32:56 | TRANSACTIONID: 100 | HOTEL: Millenium & Copthorne Hotels @ CFC | ROOM : HALL | AMOUNT : 10
17/12/2012 18:32:57 | TRANSACTIONID: 101 | HOTEL: Millenium & Copthorne Hotels @ CFC | ROOM : HALL | AMOUNT : 3
17/12/2012 18:32:58 | TRANSACTIONID: 102 | HOTEL: Millenium & Copthorne Hotels @ CFC | ROOM : HALL | AMOUNT : 20
17/12/2012 18:32:59 | TRANSACTIONID: 103 | HOTEL: Millenium & Copthorne Hotels @ CFC | ROOM : HALL | AMOUNT : 10
17/12/2012 18:33:00 | TRANSACTIONID: 104 | HOTEL: Millenium & Copthorne Hotels @ CFC | ROOM : HALL | AMOUNT : 20
17/12/2012 18:33:01 | TRANSACTIONID: 105 | HOTEL: Millenium & Copthorne Hotels @ CFC | ROOM : HALL | AMOUNT : 50
17/12/2012 18:33:04 | TRANSACTIONID: 105 | SEND SUPPORT MAIL
17/12/2012 18:33:05 | CHECK START
17/12/2012 18:33:05 | NEW ITEMS: 0
17/12/2012 18:33:05 | CHECK PENDING REQUEST
17/12/2012 18:33:08 | TRANSACTIONID: 98 | HOTEL: Millenium & Copthorne Hotels @ CFC | ROOM : HALL | AMOUNT : 20
17/12/2012 18:33:09 | TRANSACTIONID: 99 | HOTEL: Millenium & Copthorne Hotels @ CFC | ROOM : HALL | AMOUNT : 3
17/12/2012 18:33:09 | TRANSACTIONID: 100 | HOTEL: Millenium & Copthorne Hotels @ CFC | ROOM : HALL | AMOUNT : 10
17/12/2012 18:33:10 | TRANSACTIONID: 101 | HOTEL: Millenium & Copthorne Hotels @ CFC | ROOM : HALL | AMOUNT : 3
17/12/2012 18:33:11 | TRANSACTIONID: 102 | HOTEL: Millenium & Copthorne Hotels @ CFC | ROOM : HALL | AMOUNT : 20
17/12/2012 18:33:12 | TRANSACTIONID: 103 | HOTEL: Millenium & Copthorne Hotels @ CFC | ROOM : HALL | AMOUNT : 10
17/12/2012 18:33:13 | TRANSACTIONID: 104 | HOTEL: Millenium & Copthorne Hotels @ CFC | ROOM : HALL | AMOUNT : 20
17/12/2012 18:33:14 | TRANSACTIONID: 105 | HOTEL: Millenium & Copthorne Hotels @ CFC | ROOM : HALL | AMOUNT : 50
17/12/2012 18:33:17 | TRANSACTIONID: 105 | SEND SUPPORT MAIL
17/12/2012 18:43:05 | CHECK START
17/12/2012 18:43:06 | NEW ITEMS: 7
17/12/2012 18:43:07 | TRANSACTIONID: 98 | HOTEL: Millenium & Copthorne Hotels @ CFC | ROOM : HALL | AMOUNT : 20
17/12/2012 18:43:28 | TRANSACTIONID: 98 | STATUS CHANGE: 2
17/12/2012 18:43:29 | TRANSACTIONID: 99 | HOTEL: Millenium & Copthorne Hotels @ CFC | ROOM : HALL | AMOUNT : 3
17/12/2012 18:43:47 | CHECK START
17/12/2012 18:43:48 | NEW ITEMS: 5
17/12/2012 18:43:48 | TRANSACTIONID: 100 | HOTEL: Millenium & Copthorne Hotels @ CFC | ROOM : HALL | AMOUNT : 10
17/12/2012 18:54:52 | CHECK START
17/12/2012 18:54:53 | NEW ITEMS: 5
17/12/2012 18:54:54 | TRANSACTIONID: 100 | HOTEL: Millenium & Copthorne Hotels @ CFC | ROOM : HALL | AMOUNT : 10
17/12/2012 18:54:57 | TRANSACTIONID: 100 | STATUS CHANGE: 2
17/12/2012 18:54:58 | TRANSACTIONID: 101 | HOTEL: Millenium & Copthorne Hotels @ CFC | ROOM : HALL | AMOUNT : 3
17/12/2012 18:55:02 | TRANSACTIONID: 101 | STATUS CHANGE: 2
17/12/2012 18:55:03 | TRANSACTIONID: 102 | HOTEL: Millenium & Copthorne Hotels @ CFC | ROOM : HALL | AMOUNT : 20
17/12/2012 18:55:04 | TRANSACTIONID: 102 | STATUS CHANGE: 2
17/12/2012 18:55:05 | TRANSACTIONID: 103 | HOTEL: Millenium & Copthorne Hotels @ CFC | ROOM : HALL | AMOUNT : 10
17/12/2012 18:55:07 | TRANSACTIONID: 103 | STATUS CHANGE: 2
17/12/2012 18:55:08 | TRANSACTIONID: 104 | HOTEL: Millenium & Copthorne Hotels @ CFC | ROOM : HALL | AMOUNT : 20
17/12/2012 18:55:09 | TRANSACTIONID: 104 | STATUS CHANGE: 2
17/12/2012 18:55:09 | CHECK PENDING REQUEST
17/12/2012 18:55:12 | TRANSACTIONID: 98 | HOTEL: Millenium & Copthorne Hotels @ CFC | ROOM : HALL | AMOUNT : 20
17/12/2012 18:55:13 | TRANSACTIONID: 99 | HOTEL: Millenium & Copthorne Hotels @ CFC | ROOM : HALL | AMOUNT : 3
17/12/2012 18:55:14 | TRANSACTIONID: 100 | HOTEL: Millenium & Copthorne Hotels @ CFC | ROOM : HALL | AMOUNT : 10
17/12/2012 18:55:14 | TRANSACTIONID: 101 | HOTEL: Millenium & Copthorne Hotels @ CFC | ROOM : HALL | AMOUNT : 3
17/12/2012 18:55:15 | TRANSACTIONID: 102 | HOTEL: Millenium & Copthorne Hotels @ CFC | ROOM : HALL | AMOUNT : 20
17/12/2012 18:55:16 | TRANSACTIONID: 103 | HOTEL: Millenium & Copthorne Hotels @ CFC | ROOM : HALL | AMOUNT : 10
17/12/2012 18:55:17 | TRANSACTIONID: 104 | HOTEL: Millenium & Copthorne Hotels @ CFC | ROOM : HALL | AMOUNT : 20
17/12/2012 18:55:18 | TRANSACTIONID: 105 | HOTEL: Millenium & Copthorne Hotels @ CFC | ROOM : HALL | AMOUNT : 50
17/12/2012 18:55:22 | CHECK START
17/12/2012 18:55:22 | NEW ITEMS: 0
17/12/2012 18:55:22 | CHECK PENDING REQUEST
17/12/2012 18:55:25 | TRANSACTIONID: 98 | HOTEL: Millenium & Copthorne Hotels @ CFC | ROOM : HALL | AMOUNT : 20
17/12/2012 18:55:26 | TRANSACTIONID: 99 | HOTEL: Millenium & Copthorne Hotels @ CFC | ROOM : HALL | AMOUNT : 3
17/12/2012 18:55:26 | TRANSACTIONID: 100 | HOTEL: Millenium & Copthorne Hotels @ CFC | ROOM : HALL | AMOUNT : 10
17/12/2012 18:55:27 | TRANSACTIONID: 101 | HOTEL: Millenium & Copthorne Hotels @ CFC | ROOM : HALL | AMOUNT : 3
17/12/2012 18:55:28 | TRANSACTIONID: 102 | HOTEL: Millenium & Copthorne Hotels @ CFC | ROOM : HALL | AMOUNT : 20
17/12/2012 18:55:29 | TRANSACTIONID: 103 | HOTEL: Millenium & Copthorne Hotels @ CFC | ROOM : HALL | AMOUNT : 10
17/12/2012 18:55:30 | TRANSACTIONID: 104 | HOTEL: Millenium & Copthorne Hotels @ CFC | ROOM : HALL | AMOUNT : 20
17/12/2012 18:55:32 | TRANSACTIONID: 105 | HOTEL: Millenium & Copthorne Hotels @ CFC | ROOM : HALL | AMOUNT : 50
17/12/2012 18:55:35 | TRANSACTIONID: 105 | SEND SUPPORT MAIL
17/12/2012 18:55:36 | TRANSACTIONID: 106 | HOTEL: Millenium & Copthorne Hotels @ CFC | ROOM : HALL | AMOUNT : 50
17/12/2012 18:55:39 | TRANSACTIONID: 106 | SEND SUPPORT MAIL
17/12/2012 18:55:40 | TRANSACTIONID: 107 | HOTEL: Millenium & Copthorne Hotels @ CFC | ROOM : HALL | AMOUNT : 20
17/12/2012 18:55:42 | TRANSACTIONID: 107 | SEND SUPPORT MAIL
17/12/2012 18:55:43 | TRANSACTIONID: 121 | HOTEL: Millenium & Copthorne Hotels @ CFC | ROOM : HALL | AMOUNT : 0
17/12/2012 19:00:32 | CHECK START
17/12/2012 19:00:34 | NEW ITEMS: 3
17/12/2012 19:00:34 | TRANSACTIONID: 98 | HOTEL: Millenium & Copthorne Hotels @ CFC | ROOM : HALL | AMOUNT : 20
17/12/2012 19:00:47 | TRANSACTIONID: 98 | STATUS CHANGE: 2
17/12/2012 19:00:47 | TRANSACTIONID: 99 | HOTEL: Millenium & Copthorne Hotels @ CFC | ROOM : HALL | AMOUNT : 3
17/12/2012 19:12:20 | CHECK START
17/12/2012 19:12:21 | NEW ITEMS: 2
17/12/2012 19:12:22 | TRANSACTIONID: 99 | HOTEL: Millenium & Copthorne Hotels @ CFC | ROOM : HALL | AMOUNT : 3
17/12/2012 19:12:25 | TRANSACTIONID: 99 | STATUS CHANGE: 2
17/12/2012 19:12:26 | TRANSACTIONID: 100 | HOTEL: Millenium & Copthorne Hotels @ CFC | ROOM : HALL | AMOUNT : 10
17/12/2012 19:12:29 | TRANSACTIONID: 100 | STATUS CHANGE: 2
17/12/2012 19:12:29 | CHECK PENDING REQUEST
17/12/2012 19:12:32 | TRANSACTIONID: 98 | HOTEL: Millenium & Copthorne Hotels @ CFC | ROOM : HALL | AMOUNT : 20
17/12/2012 19:12:33 | TRANSACTIONID: 99 | HOTEL: Millenium & Copthorne Hotels @ CFC | ROOM : HALL | AMOUNT : 3
17/12/2012 19:12:34 | TRANSACTIONID: 100 | HOTEL: Millenium & Copthorne Hotels @ CFC | ROOM : HALL | AMOUNT : 10
17/12/2012 19:12:35 | TRANSACTIONID: 101 | HOTEL: Millenium & Copthorne Hotels @ CFC | ROOM : HALL | AMOUNT : 3
17/12/2012 19:13:50 | CHECK START
17/12/2012 19:13:51 | NEW ITEMS: 0
17/12/2012 19:13:51 | CHECK PENDING REQUEST
17/12/2012 19:13:54 | TRANSACTIONID: 98 | HOTEL: Millenium & Copthorne Hotels @ CFC | ROOM : HALL | AMOUNT : 20
17/12/2012 19:14:28 | CHECK START
17/12/2012 19:14:29 | NEW ITEMS: 3
17/12/2012 19:14:30 | TRANSACTIONID: 98 | HOTEL: Millenium & Copthorne Hotels @ CFC | ROOM : HALL | AMOUNT : 20
17/12/2012 19:14:40 | TRANSACTIONID: 98 | STATUS CHANGE: 1
17/12/2012 19:14:41 | TRANSACTIONID: 99 | HOTEL: Millenium & Copthorne Hotels @ CFC | ROOM : HALL | AMOUNT : 3
17/12/2012 19:14:42 | TRANSACTIONID: 99 | STATUS CHANGE: 1
17/12/2012 19:14:43 | TRANSACTIONID: 100 | HOTEL: Millenium & Copthorne Hotels @ CFC | ROOM : HALL | AMOUNT : 10
17/12/2012 19:14:45 | TRANSACTIONID: 100 | STATUS CHANGE: 1
17/12/2012 19:14:45 | CHECK PENDING REQUEST
17/12/2012 19:14:47 | TRANSACTIONID: 101 | HOTEL: Millenium & Copthorne Hotels @ CFC | ROOM : HALL | AMOUNT : 3
17/12/2012 19:14:51 | TRANSACTIONID: 102 | HOTEL: Millenium & Copthorne Hotels @ CFC | ROOM : HALL | AMOUNT : 20
17/12/2012 19:14:59 | CHECK START
17/12/2012 19:19:41 | CHECK START
17/12/2012 19:19:43 | NEW ITEMS: 3
17/12/2012 19:19:44 | TRANSACTIONID: 98 | HOTEL: Millenium & Copthorne Hotels @ CFC | ROOM : HALL | AMOUNT : 20
17/12/2012 19:21:10 | CHECK START
17/12/2012 19:21:16 | NEW ITEMS: 3
17/12/2012 19:21:17 | TRANSACTIONID: 98 | HOTEL: Millenium & Copthorne Hotels @ CFC | ROOM : HALL | AMOUNT : 20
17/12/2012 19:21:58 | CHECK START
17/12/2012 19:21:59 | NEW ITEMS: 3
17/12/2012 19:22:00 | TRANSACTIONID: 98 | HOTEL: Millenium & Copthorne Hotels @ CFC | ROOM : HALL | AMOUNT : 20
17/12/2012 19:24:42 | CHECK START
17/12/2012 19:24:43 | NEW ITEMS: 2
17/12/2012 19:24:44 | TRANSACTIONID: 99 | HOTEL: Millenium & Copthorne Hotels @ CFC | ROOM : HALL | AMOUNT : 3
17/12/2012 19:24:42 | TRANSACTIONID: 98 | STATUS CHANGE: 2
17/12/2012 19:24:49 | TRANSACTIONID: 99 | STATUS CHANGE: 2
17/12/2012 19:24:50 | TRANSACTIONID: 100 | HOTEL: Millenium & Copthorne Hotels @ CFC | ROOM : HALL | AMOUNT : 10
17/12/2012 19:24:49 | TRANSACTIONID: 99 | HOTEL: Millenium & Copthorne Hotels @ CFC | ROOM : HALL | AMOUNT : 3
17/12/2012 19:24:52 | TRANSACTIONID: 100 | STATUS CHANGE: 2
17/12/2012 19:24:52 | CHECK PENDING REQUEST
17/12/2012 19:24:55 | TRANSACTIONID: 98 | HOTEL: Millenium & Copthorne Hotels @ CFC | ROOM : HALL | AMOUNT : 20
17/12/2012 19:26:12 | TRANSACTIONID: 99 | HOTEL: Millenium & Copthorne Hotels @ CFC | ROOM : HALL | AMOUNT : 3
17/12/2012 19:26:16 | TRANSACTIONID: 100 | HOTEL: Millenium & Copthorne Hotels @ CFC | ROOM : HALL | AMOUNT : 10
17/12/2012 19:26:59 | TRANSACTIONID: 101 | HOTEL: Millenium & Copthorne Hotels @ CFC | ROOM : HALL | AMOUNT : 3
17/12/2012 19:27:10 | TRANSACTIONID: 101 | SEND SUPPORT MAIL
17/12/2012 19:27:12 | TRANSACTIONID: 102 | HOTEL: Millenium & Copthorne Hotels @ CFC | ROOM : HALL | AMOUNT : 20
17/12/2012 19:31:13 | CHECK START
17/12/2012 19:31:13 | NEW ITEMS: 0
17/12/2012 19:31:13 | CHECK PENDING REQUEST
17/12/2012 19:31:16 | TRANSACTIONID: 98 | HOTEL: Millenium & Copthorne Hotels @ CFC | ROOM : HALL | AMOUNT : 20
17/12/2012 19:57:00 | CHECK START
17/12/2012 19:57:00 | NEW ITEMS: 0
17/12/2012 19:57:01 | CHECK PENDING REQUEST
17/12/2012 19:57:03 | TRANSACTIONID: 98 | HOTEL: Millenium & Copthorne Hotels @ CFC | ROOM : HALL | AMOUNT : 20
17/12/2012 19:57:28 | CHECK START
17/12/2012 19:57:29 | NEW ITEMS: 0
17/12/2012 19:57:29 | CHECK PENDING REQUEST
17/12/2012 19:57:32 | TRANSACTIONID: 98 | HOTEL: Millenium & Copthorne Hotels @ CFC | ROOM : HALL | AMOUNT : 20
17/12/2012 19:58:02 | CHECK START
17/12/2012 19:58:11 | NEW ITEMS: 0
17/12/2012 19:58:11 | CHECK PENDING REQUEST
17/12/2012 19:58:54 | TRANSACTIONID: 98 | HOTEL: Millenium & Copthorne Hotels @ CFC | ROOM : HALL | AMOUNT : 20
17/12/2012 20:02:18 | CHECK START
17/12/2012 20:02:18 | NEW ITEMS: 0
17/12/2012 20:02:18 | CHECK PENDING REQUEST
17/12/2012 20:02:20 | TRANSACTIONID: 98 | HOTEL: Millenium & Copthorne Hotels @ CFC | ROOM : HALL | AMOUNT : 20
17/12/2012 20:02:28 | CHECK START
17/12/2012 20:02:28 | NEW ITEMS: 0
17/12/2012 20:02:28 | CHECK PENDING REQUEST
17/12/2012 20:02:31 | TRANSACTIONID: 98 | HOTEL: Millenium & Copthorne Hotels @ CFC | ROOM : HALL | AMOUNT : 20
17/12/2012 20:07:31 | CHECK START
17/12/2012 20:07:31 | NEW ITEMS: 0
17/12/2012 20:07:31 | CHECK PENDING REQUEST
17/12/2012 20:07:34 | TRANSACTIONID: 98 | HOTEL: Millenium & Copthorne Hotels @ CFC | ROOM : HALL | AMOUNT : 20
17/12/2012 20:08:00 | CHECK START
17/12/2012 20:08:01 | NEW ITEMS: 0
17/12/2012 20:08:01 | CHECK PENDING REQUEST
17/12/2012 20:08:03 | TRANSACTIONID: 98 | HOTEL: Millenium & Copthorne Hotels @ CFC | ROOM : HALL | AMOUNT : 20
17/12/2012 20:08:31 | CHECK START
17/12/2012 20:08:31 | NEW ITEMS: 0
17/12/2012 20:08:31 | CHECK PENDING REQUEST
17/12/2012 20:08:33 | TRANSACTIONID: 98 | HOTEL: Millenium & Copthorne Hotels @ CFC | ROOM : HALL | AMOUNT : 20
17/12/2012 20:10:22 | CHECK START
17/12/2012 20:10:23 | NEW ITEMS: 0
17/12/2012 20:10:23 | CHECK PENDING REQUEST
17/12/2012 20:10:26 | TRANSACTIONID: 98 | HOTEL: Millenium & Copthorne Hotels @ CFC | ROOM : HALL | AMOUNT : 20
17/12/2012 20:11:25 | CHECK START
17/12/2012 20:11:26 | NEW ITEMS: 0
17/12/2012 20:11:26 | CHECK PENDING REQUEST
17/12/2012 20:11:29 | TRANSACTIONID: 98 | HOTEL: Millenium & Copthorne Hotels @ CFC | ROOM : HALL | AMOUNT : 20
